127.0.0.1 - - [20/Sep/2019:10:20:11 +0545] "GET / HTTP/1.1" 404 1074
0:0:0:0:0:0:0:1 - - [20/Sep/2019:10:20:20 +0545] "GET /WebServerStudy/ HTTP/1.1" 200 324
0:0:0:0:0:0:0:1 - - [20/Sep/2019:10:20:21 +0545] "GET /favicon.ico HTTP/1.1" 404 1085
0:0:0:0:0:0:0:1 - - [20/Sep/2019:10:21:05 +0545] "GET /WebServerStudy/web?name=admin&password=admin HTTP/1.1" 200 45
0:0:0:0:0:0:0:1 - - [20/Sep/2019:10:21:09 +0545] "GET /WebServerStudy/index.jsp HTTP/1.1" 200 324
127.0.0.1 - - [20/Sep/2019:10:32:00 +0545] "GET / HTTP/1.1" 404 1074
0:0:0:0:0:0:0:1 - - [20/Sep/2019:10:32:01 +0545] "GET /WebServerStudy/ HTTP/1.1" 200 324
0:0:0:0:0:0:0:1 - - [20/Sep/2019:10:32:08 +0545] "GET /WebServerStudy/web?name=admin&password=admin HTTP/1.1" 200 45
0:0:0:0:0:0:0:1 - - [20/Sep/2019:10:39:15 +0545] "GET /WebServerStudy/web?name=ramesh&password=admin HTTP/1.1" 200 45
0:0:0:0:0:0:0:1 - - [20/Sep/2019:10:39:18 +0545] "GET /WebServerStudy/index.jsp HTTP/1.1" 200 324
0:0:0:0:0:0:0:1 - - [20/Sep/2019:10:39:27 +0545] "GET /WebServerStudy/web?name=Suraj&password=ramesh HTTP/1.1" 200 45
0:0:0:0:0:0:0:1 - - [20/Sep/2019:10:39:37 +0545] "GET /WebServerStudy/index.jsp HTTP/1.1" 200 324
127.0.0.1 - - [20/Sep/2019:11:02:04 +0545] "GET / HTTP/1.1" 404 1074
0:0:0:0:0:0:0:1 - - [20/Sep/2019:11:02:05 +0545] "GET /Application3/ HTTP/1.1" 200 332
0:0:0:0:0:0:0:1 - - [20/Sep/2019:11:02:11 +0545] "GET /Application3/App?login_Name=admin&login_password=admin HTTP/1.1" 200 332
0:0:0:0:0:0:0:1 - - [20/Sep/2019:11:02:22 +0545] "GET /WebServerStudy/web?name=admin&password=admin HTTP/1.1" 200 45
127.0.0.1 - - [20/Sep/2019:11:04:16 +0545] "GET / HTTP/1.1" 404 1074
0:0:0:0:0:0:0:1 - - [20/Sep/2019:11:04:18 +0545] "GET /WebServerStudy/ HTTP/1.1" 200 324
0:0:0:0:0:0:0:1 - - [20/Sep/2019:11:04:18 +0545] "GET /favicon.ico HTTP/1.1" 404 1085
0:0:0:0:0:0:0:1 - - [20/Sep/2019:11:04:24 +0545] "GET /WebServerStudy/web?name=admin&password=admin HTTP/1.1" 200 45
0:0:0:0:0:0:0:1 - - [20/Sep/2019:11:04:29 +0545] "GET /WebServerStudy/index.jsp HTTP/1.1" 200 324
0:0:0:0:0:0:0:1 - - [20/Sep/2019:11:04:43 +0545] "GET /Application3/ HTTP/1.1" 200 332
0:0:0:0:0:0:0:1 - - [20/Sep/2019:11:04:43 +0545] "GET /favicon.ico HTTP/1.1" 404 1085
0:0:0:0:0:0:0:1 - - [20/Sep/2019:11:04:49 +0545] "GET /Application3/App?login_Name=admin&login_password=admin HTTP/1.1" 200 332
127.0.0.1 - - [20/Sep/2019:11:07:17 +0545] "GET / HTTP/1.1" 404 1074
0:0:0:0:0:0:0:1 - - [20/Sep/2019:11:07:20 +0545] "GET /Application3/ HTTP/1.1" 200 332
0:0:0:0:0:0:0:1 - - [20/Sep/2019:11:07:20 +0545] "GET /favicon.ico HTTP/1.1" 404 1085
0:0:0:0:0:0:0:1 - - [20/Sep/2019:11:07:25 +0545] "GET /Application3/App?login_Name=admin&login_password=admin HTTP/1.1" 200 332
0:0:0:0:0:0:0:1 - - [20/Sep/2019:11:07:41 +0545] "GET /Application3/ HTTP/1.1" 200 332
0:0:0:0:0:0:0:1 - - [20/Sep/2019:11:07:41 +0545] "GET /favicon.ico HTTP/1.1" 404 1085
0:0:0:0:0:0:0:1 - - [20/Sep/2019:11:07:47 +0545] "GET /Application3/App?login_Name=suraj&login_password=das HTTP/1.1" 200 12
127.0.0.1 - - [20/Sep/2019:11:10:52 +0545] "GET / HTTP/1.1" 404 1074
0:0:0:0:0:0:0:1 - - [20/Sep/2019:11:10:54 +0545] "GET /Application3/ HTTP/1.1" 200 332
0:0:0:0:0:0:0:1 - - [20/Sep/2019:11:10:55 +0545] "GET /favicon.ico HTTP/1.1" 404 1085
0:0:0:0:0:0:0:1 - - [20/Sep/2019:11:11:01 +0545] "GET /Application3/App?login_Name=suraj&login_password=das HTTP/1.1" 200 93
0:0:0:0:0:0:0:1 - - [20/Sep/2019:11:11:03 +0545] "GET /Application3/index.jsp HTTP/1.1" 200 332
0:0:0:0:0:0:0:1 - - [20/Sep/2019:11:11:10 +0545] "GET /Application3/App?login_Name=suraj&login_password=das HTTP/1.1" 200 93
127.0.0.1 - - [20/Sep/2019:11:12:53 +0545] "GET / HTTP/1.1" 404 1074
0:0:0:0:0:0:0:1 - - [20/Sep/2019:11:12:55 +0545] "GET /Application2/ HTTP/1.1" 200 332
0:0:0:0:0:0:0:1 - - [20/Sep/2019:11:12:55 +0545] "GET /favicon.ico HTTP/1.1" 404 1085
0:0:0:0:0:0:0:1 - - [20/Sep/2019:11:13:01 +0545] "GET /Application2/ser?login_Name=suraj&login_password=das HTTP/1.1" 200 332
0:0:0:0:0:0:0:1 - - [20/Sep/2019:11:13:12 +0545] "GET /Application2/ser?login_Name=suraj&login_password=das HTTP/1.1" 200 332
127.0.0.1 - - [20/Sep/2019:11:13:58 +0545] "GET / HTTP/1.1" 404 1074
0:0:0:0:0:0:0:1 - - [20/Sep/2019:11:14:00 +0545] "GET /Application3/ HTTP/1.1" 200 332
0:0:0:0:0:0:0:1 - - [20/Sep/2019:11:14:01 +0545] "GET /favicon.ico HTTP/1.1" 404 1085
0:0:0:0:0:0:0:1 - - [20/Sep/2019:11:14:06 +0545] "GET /Application3/App?login_Name=suraj&login_password=das HTTP/1.1" 200 103
127.0.0.1 - - [20/Sep/2019:11:14:52 +0545] "GET / HTTP/1.1" 404 1074
0:0:0:0:0:0:0:1 - - [20/Sep/2019:11:14:54 +0545] "GET /Application3/ HTTP/1.1" 200 332
0:0:0:0:0:0:0:1 - - [20/Sep/2019:11:14:54 +0545] "GET /favicon.ico HTTP/1.1" 404 1085
0:0:0:0:0:0:0:1 - - [20/Sep/2019:11:15:07 +0545] "GET /Application3/App?login_Name=suraj&login_password=das HTTP/1.1" 200 107
0:0:0:0:0:0:0:1 - - [20/Sep/2019:11:15:13 +0545] "GET /Application3/index.jsp HTTP/1.1" 200 332
0:0:0:0:0:0:0:1 - - [20/Sep/2019:11:15:22 +0545] "GET /Application3/App?login_Name=suraj&login_password=das HTTP/1.1" 200 107
127.0.0.1 - - [20/Sep/2019:11:24:24 +0545] "GET / HTTP/1.1" 404 1074
0:0:0:0:0:0:0:1 - - [20/Sep/2019:11:24:26 +0545] "GET /Application3/ HTTP/1.1" 200 332
0:0:0:0:0:0:0:1 - - [20/Sep/2019:11:24:26 +0545] "GET /favicon.ico HTTP/1.1" 404 1085
0:0:0:0:0:0:0:1 - - [20/Sep/2019:11:24:37 +0545] "GET /Application3/App?login_Name=admin&login_password=admin HTTP/1.1" 200 332
127.0.0.1 - - [20/Sep/2019:11:52:17 +0545] "GET / HTTP/1.1" 404 1074
0:0:0:0:0:0:0:1 - - [20/Sep/2019:11:52:20 +0545] "GET /Application3/ HTTP/1.1" 200 332
0:0:0:0:0:0:0:1 - - [20/Sep/2019:11:52:20 +0545] "GET /favicon.ico HTTP/1.1" 404 1085
0:0:0:0:0:0:0:1 - - [20/Sep/2019:11:52:30 +0545] "GET /Application3/App?login_Name=admin&login_password=admin HTTP/1.1" 200 332
127.0.0.1 - - [20/Sep/2019:11:53:35 +0545] "GET / HTTP/1.1" 404 1074
0:0:0:0:0:0:0:1 - - [20/Sep/2019:11:53:35 +0545] "GET /Application3/ HTTP/1.1" 200 332
0:0:0:0:0:0:0:1 - - [20/Sep/2019:11:53:43 +0545] "GET /Application3/App?login_Name=admin&login_password=admin HTTP/1.1" 200 332
127.0.0.1 - - [20/Sep/2019:11:54:52 +0545] "GET / HTTP/1.1" 404 1074
0:0:0:0:0:0:0:1 - - [20/Sep/2019:11:54:53 +0545] "GET /Application3/ HTTP/1.1" 200 332
0:0:0:0:0:0:0:1 - - [20/Sep/2019:11:54:58 +0545] "GET /Application3/App?login_Name=suraj&login_password=suraj HTTP/1.1" 200 332
127.0.0.1 - - [20/Sep/2019:11:59:43 +0545] "GET / HTTP/1.1" 404 1074
0:0:0:0:0:0:0:1 - - [20/Sep/2019:11:59:45 +0545] "GET /WebServerStudy/ HTTP/1.1" 200 324
0:0:0:0:0:0:0:1 - - [20/Sep/2019:11:59:46 +0545] "GET /favicon.ico HTTP/1.1" 404 1085
0:0:0:0:0:0:0:1 - - [20/Sep/2019:11:59:53 +0545] "GET /WebServerStudy/web?name=Suraj&password=k HTTP/1.1" 200 45
0:0:0:0:0:0:0:1 - - [20/Sep/2019:11:59:58 +0545] "GET /WebServerStudy/index.jsp HTTP/1.1" 200 324
0:0:0:0:0:0:0:1 - - [20/Sep/2019:12:00:58 +0545] "GET /WebServerStudy/ HTTP/1.1" 200 324
0:0:0:0:0:0:0:1 - - [20/Sep/2019:12:00:58 +0545] "GET /favicon.ico HTTP/1.1" 404 1085
0:0:0:0:0:0:0:1 - - [20/Sep/2019:12:01:03 +0545] "GET /WebServerStudy/web?name=admin&password=admin HTTP/1.1" 200 45
127.0.0.1 - - [20/Sep/2019:12:10:56 +0545] "GET / HTTP/1.1" 404 1074
0:0:0:0:0:0:0:1 - - [20/Sep/2019:12:10:58 +0545] "GET /WebServerStudy/ HTTP/1.1" 200 324
0:0:0:0:0:0:0:1 - - [20/Sep/2019:12:10:58 +0545] "GET /favicon.ico HTTP/1.1" 404 1085
0:0:0:0:0:0:0:1 - - [20/Sep/2019:12:11:04 +0545] "GET /WebServerStudy/web?name=admin&password=admin HTTP/1.1" 200 324
0:0:0:0:0:0:0:1 - - [20/Sep/2019:12:11:42 +0545] "GET /WebServerStudy/web?name=admin&password=admin HTTP/1.1" 200 324
0:0:0:0:0:0:0:1 - - [20/Sep/2019:12:11:47 +0545] "GET /WebServerStudy/web?name=admin&password=admin HTTP/1.1" 200 324
127.0.0.1 - - [20/Sep/2019:12:12:02 +0545] "GET / HTTP/1.1" 404 1074
0:0:0:0:0:0:0:1 - - [20/Sep/2019:12:12:04 +0545] "GET /WebServerStudy/ HTTP/1.1" 200 324
0:0:0:0:0:0:0:1 - - [20/Sep/2019:12:12:04 +0545] "GET /favicon.ico HTTP/1.1" 404 1085
0:0:0:0:0:0:0:1 - - [20/Sep/2019:12:12:10 +0545] "GET /WebServerStudy/web?name=admin&password=admin HTTP/1.1" 200 324
127.0.0.1 - - [20/Sep/2019:12:12:43 +0545] "GET / HTTP/1.1" 404 1074
0:0:0:0:0:0:0:1 - - [20/Sep/2019:12:12:43 +0545] "GET /WebServerStudy/ HTTP/1.1" 200 324
0:0:0:0:0:0:0:1 - - [20/Sep/2019:12:12:49 +0545] "GET /WebServerStudy/web?name=admin&password=admin HTTP/1.1" 200 45
127.0.0.1 - - [20/Sep/2019:12:18:56 +0545] "GET / HTTP/1.1" 404 1074
0:0:0:0:0:0:0:1 - - [20/Sep/2019:12:18:58 +0545] "GET /WebServerStudy/ HTTP/1.1" 200 324
0:0:0:0:0:0:0:1 - - [20/Sep/2019:12:18:58 +0545] "GET /favicon.ico HTTP/1.1" 404 1085
0:0:0:0:0:0:0:1 - - [20/Sep/2019:12:19:08 +0545] "GET /WebServerStudy/web?name=admin&password=admin HTTP/1.1" 200 324
127.0.0.1 - - [20/Sep/2019:12:19:42 +0545] "GET / HTTP/1.1" 404 1074
0:0:0:0:0:0:0:1 - - [20/Sep/2019:12:19:44 +0545] "GET /WebServerStudy/ HTTP/1.1" 200 324
0:0:0:0:0:0:0:1 - - [20/Sep/2019:12:19:44 +0545] "GET /favicon.ico HTTP/1.1" 404 1085
0:0:0:0:0:0:0:1 - - [20/Sep/2019:12:19:51 +0545] "GET /WebServerStudy/web?name=Suraj&password=admin HTTP/1.1" 200 45
127.0.0.1 - - [20/Sep/2019:12:23:12 +0545] "GET / HTTP/1.1" 404 1074
0:0:0:0:0:0:0:1 - - [20/Sep/2019:12:23:13 +0545] "GET /Application3/ HTTP/1.1" 200 332
0:0:0:0:0:0:0:1 - - [20/Sep/2019:12:23:21 +0545] "GET /Application3/App?login_Name=suraj&login_password=das HTTP/1.1" 200 332
0:0:0:0:0:0:0:1 - - [20/Sep/2019:12:23:27 +0545] "GET /Application3/App?login_Name=admin&login_password=admin HTTP/1.1" 200 332
127.0.0.1 - - [20/Sep/2019:12:24:40 +0545] "GET / HTTP/1.1" 404 1074
0:0:0:0:0:0:0:1 - - [20/Sep/2019:12:24:42 +0545] "GET /Application3/ HTTP/1.1" 200 332
0:0:0:0:0:0:0:1 - - [20/Sep/2019:12:24:42 +0545] "GET /favicon.ico HTTP/1.1" 404 1085
0:0:0:0:0:0:0:1 - - [20/Sep/2019:12:24:47 +0545] "GET /Application3/App?login_Name=suraj&login_password=suraj HTTP/1.1" 200 332
127.0.0.1 - - [20/Sep/2019:12:27:20 +0545] "GET / HTTP/1.1" 404 1074
0:0:0:0:0:0:0:1 - - [20/Sep/2019:12:27:21 +0545] "GET /Application3/ HTTP/1.1" 200 332
0:0:0:0:0:0:0:1 - - [20/Sep/2019:12:27:28 +0545] "GET /Application3/App?login_Name=admin&login_password=admin HTTP/1.1" 200 332
127.0.0.1 - - [20/Sep/2019:12:28:05 +0545] "GET / HTTP/1.1" 404 1074
0:0:0:0:0:0:0:1 - - [20/Sep/2019:12:28:05 +0545] "GET /Application3/ HTTP/1.1" 200 332
0:0:0:0:0:0:0:1 - - [20/Sep/2019:12:28:12 +0545] "GET /Application3/App?login_Name=admin&login_password=admin HTTP/1.1" 200 109
127.0.0.1 - - [20/Sep/2019:12:29:02 +0545] "GET / HTTP/1.1" 404 1074
0:0:0:0:0:0:0:1 - - [20/Sep/2019:12:29:02 +0545] "GET /Application3/ HTTP/1.1" 200 332
0:0:0:0:0:0:0:1 - - [20/Sep/2019:12:29:09 +0545] "GET /Application3/App?login_Name=admin&login_password=admin HTTP/1.1" 200 109
127.0.0.1 - - [20/Sep/2019:12:31:24 +0545] "GET / HTTP/1.1" 404 1074
0:0:0:0:0:0:0:1 - - [20/Sep/2019:12:31:25 +0545] "GET /Application3/ HTTP/1.1" 200 332
0:0:0:0:0:0:0:1 - - [20/Sep/2019:12:31:33 +0545] "GET /Application3/App?login_Name=admin&login_password=admin HTTP/1.1" 200 332
127.0.0.1 - - [20/Sep/2019:12:33:50 +0545] "GET / HTTP/1.1" 404 1074
0:0:0:0:0:0:0:1 - - [20/Sep/2019:12:33:51 +0545] "GET /Application3/ HTTP/1.1" 200 332
0:0:0:0:0:0:0:1 - - [20/Sep/2019:12:34:00 +0545] "GET /Application3/App?login_Name=admin&login_password=admin HTTP/1.1" 200 332
127.0.0.1 - - [20/Sep/2019:12:38:27 +0545] "GET / HTTP/1.1" 404 1074
0:0:0:0:0:0:0:1 - - [20/Sep/2019:12:38:28 +0545] "GET /Application3/ HTTP/1.1" 200 332
0:0:0:0:0:0:0:1 - - [20/Sep/2019:12:38:35 +0545] "GET /Application3/App?login_Name=admin&login_password=admin HTTP/1.1" 200 332
127.0.0.1 - - [20/Sep/2019:12:40:33 +0545] "GET / HTTP/1.1" 404 1074
0:0:0:0:0:0:0:1 - - [20/Sep/2019:12:40:35 +0545] "GET /Application3/ HTTP/1.1" 200 332
0:0:0:0:0:0:0:1 - - [20/Sep/2019:12:40:36 +0545] "GET /favicon.ico HTTP/1.1" 404 1085
0:0:0:0:0:0:0:1 - - [20/Sep/2019:12:40:42 +0545] "GET /Application3/App?login_Name=admin&login_password=admin HTTP/1.1" 200 332
127.0.0.1 - - [20/Sep/2019:12:41:32 +0545] "GET / HTTP/1.1" 404 1074
0:0:0:0:0:0:0:1 - - [20/Sep/2019:12:41:34 +0545] "GET /Application3/ HTTP/1.1" 200 332
0:0:0:0:0:0:0:1 - - [20/Sep/2019:12:41:34 +0545] "GET /favicon.ico HTTP/1.1" 404 1085
0:0:0:0:0:0:0:1 - - [20/Sep/2019:12:41:42 +0545] "GET /Application3/App?login_Name=admin&login_password=admin HTTP/1.1" 200 332
127.0.0.1 - - [20/Sep/2019:12:42:27 +0545] "GET / HTTP/1.1" 404 1074
0:0:0:0:0:0:0:1 - - [20/Sep/2019:12:42:28 +0545] "GET /Application3/ HTTP/1.1" 200 332
0:0:0:0:0:0:0:1 - - [20/Sep/2019:12:42:39 +0545] "GET /Application3/App?login_Name=admin&login_password=admin HTTP/1.1" 200 109
127.0.0.1 - - [20/Sep/2019:13:26:34 +0545] "GET / HTTP/1.1" 404 1074
0:0:0:0:0:0:0:1 - - [20/Sep/2019:13:26:35 +0545] "GET /Application4/index.jsp HTTP/1.1" 200 328
0:0:0:0:0:0:0:1 - - [20/Sep/2019:13:26:35 +0545] "GET /favicon.ico HTTP/1.1" 404 1085
0:0:0:0:0:0:0:1 - - [20/Sep/2019:13:26:40 +0545] "GET /Application4/index.jsp?login_name=&login_password= HTTP/1.1" 200 328
0:0:0:0:0:0:0:1 - - [20/Sep/2019:13:26:49 +0545] "GET /Application4/index.jsp?login_name=s&login_password=f HTTP/1.1" 200 328
0:0:0:0:0:0:0:1 - - [20/Sep/2019:13:27:24 +0545] "GET /Application4/index.jsp HTTP/1.1" 200 340
0:0:0:0:0:0:0:1 - - [20/Sep/2019:13:27:24 +0545] "GET /favicon.ico HTTP/1.1" 404 1085
127.0.0.1 - - [20/Sep/2019:13:47:49 +0545] "GET / HTTP/1.1" 404 1074
0:0:0:0:0:0:0:1 - - [20/Sep/2019:13:47:51 +0545] "GET /Application4/ HTTP/1.1" 200 340
0:0:0:0:0:0:0:1 - - [20/Sep/2019:13:47:51 +0545] "GET /favicon.ico HTTP/1.1" 404 1085
0:0:0:0:0:0:0:1 - - [20/Sep/2019:13:48:32 +0545] "GET /Application4/ HTTP/1.1" 200 344
0:0:0:0:0:0:0:1 - - [20/Sep/2019:13:48:33 +0545] "GET /favicon.ico HTTP/1.1" 404 1085
0:0:0:0:0:0:0:1 - - [20/Sep/2019:13:48:48 +0545] "GET /Application4/web1?login_name=suraj&login_password=suraj HTTP/1.1" 200 14
127.0.0.1 - - [20/Sep/2019:13:58:56 +0545] "GET / HTTP/1.1" 404 1074
0:0:0:0:0:0:0:1 - - [20/Sep/2019:13:58:58 +0545] "GET /Application4/ HTTP/1.1" 200 344
0:0:0:0:0:0:0:1 - - [20/Sep/2019:13:58:58 +0545] "GET /favicon.ico HTTP/1.1" 404 1085
0:0:0:0:0:0:0:1 - - [20/Sep/2019:13:59:05 +0545] "GET /Application4/web1?login_name=suraj&login_password=admin HTTP/1.1" 200 344
127.0.0.1 - - [20/Sep/2019:14:00:42 +0545] "GET / HTTP/1.1" 404 1074
0:0:0:0:0:0:0:1 - - [20/Sep/2019:14:00:43 +0545] "GET /Application4/ HTTP/1.1" 200 344
0:0:0:0:0:0:0:1 - - [20/Sep/2019:14:00:49 +0545] "GET /Application4/web1?login_name=suraj&login_password=admin HTTP/1.1" 200 344
127.0.0.1 - - [20/Sep/2019:14:02:16 +0545] "GET / HTTP/1.1" 404 1074
0:0:0:0:0:0:0:1 - - [20/Sep/2019:14:02:17 +0545] "GET /Application4/ HTTP/1.1" 200 344
0:0:0:0:0:0:0:1 - - [20/Sep/2019:14:02:24 +0545] "GET /Application4/web1?login_name=suraj&login_password=admin HTTP/1.1" 200 344
0:0:0:0:0:0:0:1 - - [20/Sep/2019:14:02:45 +0545] "GET /Application4/web1?login_name=Suraj&login_password=admin HTTP/1.1" 200 14
127.0.0.1 - - [20/Sep/2019:14:15:22 +0545] "GET / HTTP/1.1" 404 1074
0:0:0:0:0:0:0:1 - - [20/Sep/2019:14:15:24 +0545] "GET /Application4/ HTTP/1.1" 200 344
0:0:0:0:0:0:0:1 - - [20/Sep/2019:14:15:24 +0545] "GET /favicon.ico HTTP/1.1" 404 1085
0:0:0:0:0:0:0:1 - - [20/Sep/2019:14:15:30 +0545] "GET /Application4/web1?login_name=suraj&login_password=das HTTP/1.1" 200 344
127.0.0.1 - - [20/Sep/2019:14:16:08 +0545] "GET / HTTP/1.1" 404 1074
0:0:0:0:0:0:0:1 - - [20/Sep/2019:14:16:10 +0545] "GET /Application4/ HTTP/1.1" 200 344
0:0:0:0:0:0:0:1 - - [20/Sep/2019:14:16:10 +0545] "GET /favicon.ico HTTP/1.1" 404 1085
0:0:0:0:0:0:0:1 - - [20/Sep/2019:14:16:18 +0545] "GET /Application4/web1?login_name=Suraj&login_password=admin HTTP/1.1" 200 344
127.0.0.1 - - [20/Sep/2019:14:16:43 +0545] "GET / HTTP/1.1" 404 1074
0:0:0:0:0:0:0:1 - - [20/Sep/2019:14:16:43 +0545] "GET /Application4/ HTTP/1.1" 200 344
0:0:0:0:0:0:0:1 - - [20/Sep/2019:14:16:50 +0545] "GET /Application4/web1?login_name=Suraj&login_password=admin HTTP/1.1" 200 344
127.0.0.1 - - [20/Sep/2019:14:17:30 +0545] "GET / HTTP/1.1" 404 1074
0:0:0:0:0:0:0:1 - - [20/Sep/2019:14:17:30 +0545] "GET /Application4/ HTTP/1.1" 200 344
0:0:0:0:0:0:0:1 - - [20/Sep/2019:14:17:41 +0545] "GET /Application4/web1?login_name=admin&login_password=admin HTTP/1.1" 200 14
0:0:0:0:0:0:0:1 - - [20/Sep/2019:14:18:33 +0545] "GET /Application4/ HTTP/1.1" 200 344
0:0:0:0:0:0:0:1 - - [20/Sep/2019:14:18:33 +0545] "GET /favicon.ico HTTP/1.1" 404 1085
0:0:0:0:0:0:0:1 - - [20/Sep/2019:14:18:40 +0545] "GET /Application4/web1?login_name=suraj&login_password=suraj HTTP/1.1" 200 344
0:0:0:0:0:0:0:1 - - [20/Sep/2019:14:19:32 +0545] "GET /Application4/web1?login_name=raj&login_password=admin HTTP/1.1" 200 12
127.0.0.1 - - [20/Sep/2019:14:24:36 +0545] "GET / HTTP/1.1" 404 1074
0:0:0:0:0:0:0:1 - - [20/Sep/2019:14:24:36 +0545] "GET /Application4/ HTTP/1.1" 200 344
0:0:0:0:0:0:0:1 - - [20/Sep/2019:14:24:58 +0545] "GET /Application4/web1?login_name=admin&login_password=admin HTTP/1.1" 200 14
127.0.0.1 - - [20/Sep/2019:14:30:07 +0545] "GET / HTTP/1.1" 404 1074
0:0:0:0:0:0:0:1 - - [20/Sep/2019:14:30:08 +0545] "GET /Application3/ HTTP/1.1" 200 332
0:0:0:0:0:0:0:1 - - [20/Sep/2019:14:30:15 +0545] "GET /Application3/App?login_name=admin&login_password=admin HTTP/1.1" 200 14
127.0.0.1 - - [20/Sep/2019:14:34:38 +0545] "GET / HTTP/1.1" 404 1074
0:0:0:0:0:0:0:1 - - [20/Sep/2019:14:34:41 +0545] "GET /Application3/ HTTP/1.1" 200 334
0:0:0:0:0:0:0:1 - - [20/Sep/2019:14:34:41 +0545] "GET /favicon.ico HTTP/1.1" 404 1085
0:0:0:0:0:0:0:1 - - [20/Sep/2019:14:34:51 +0545] "GET /Application3/First?login_name=admin&login_password=admin HTTP/1.1" 200 334
0:0:0:0:0:0:0:1 - - [20/Sep/2019:14:35:39 +0545] "GET /Application3/First?login_name=admin&login_password=admin HTTP/1.1" 200 334
0:0:0:0:0:0:0:1 - - [20/Sep/2019:14:36:11 +0545] "GET /Application3/First?login_name=admin&login_password=admin HTTP/1.1" 500 78164
0:0:0:0:0:0:0:1 - - [20/Sep/2019:14:38:01 +0545] "GET /Application3/First?login_name=admin&login_password=admin HTTP/1.1" 500 8206
127.0.0.1 - - [20/Sep/2019:14:38:16 +0545] "GET / HTTP/1.1" 404 1074
0:0:0:0:0:0:0:1 - - [20/Sep/2019:14:38:18 +0545] "GET /Application3/ HTTP/1.1" 200 334
0:0:0:0:0:0:0:1 - - [20/Sep/2019:14:38:18 +0545] "GET /favicon.ico HTTP/1.1" 404 1085
0:0:0:0:0:0:0:1 - - [20/Sep/2019:14:38:23 +0545] "GET /Application3/First?login_name=admin&login_password=admin HTTP/1.1" 200 107
127.0.0.1 - - [20/Sep/2019:14:39:40 +0545] "GET / HTTP/1.1" 404 1074
0:0:0:0:0:0:0:1 - - [20/Sep/2019:14:39:42 +0545] "GET /Application3/ HTTP/1.1" 200 334
0:0:0:0:0:0:0:1 - - [20/Sep/2019:14:39:42 +0545] "GET /favicon.ico HTTP/1.1" 404 1085
0:0:0:0:0:0:0:1 - - [20/Sep/2019:14:39:48 +0545] "GET /Application3/First?login_name=admin&login_password=admin HTTP/1.1" 200 109
0:0:0:0:0:0:0:1 - - [20/Sep/2019:14:39:58 +0545] "GET /Application3/index.jsp HTTP/1.1" 200 334
127.0.0.1 - - [20/Sep/2019:14:44:24 +0545] "GET / HTTP/1.1" 404 1074
0:0:0:0:0:0:0:1 - - [20/Sep/2019:14:44:26 +0545] "GET /Application3/ HTTP/1.1" 200 334
0:0:0:0:0:0:0:1 - - [20/Sep/2019:14:44:26 +0545] "GET /favicon.ico HTTP/1.1" 404 1085
0:0:0:0:0:0:0:1 - - [20/Sep/2019:14:44:31 +0545] "GET /Application3/First?login_name=admin&login_password=admin HTTP/1.1" 200 334
127.0.0.1 - - [20/Sep/2019:14:45:34 +0545] "GET / HTTP/1.1" 404 1074
0:0:0:0:0:0:0:1 - - [20/Sep/2019:14:45:34 +0545] "GET /Application3/ HTTP/1.1" 200 334
0:0:0:0:0:0:0:1 - - [20/Sep/2019:14:45:39 +0545] "GET /Application3/First?login_name=admin&login_password=admin HTTP/1.1" 200 334
127.0.0.1 - - [20/Sep/2019:14:48:44 +0545] "GET / HTTP/1.1" 404 1074
0:0:0:0:0:0:0:1 - - [20/Sep/2019:14:48:45 +0545] "GET /Application3/ HTTP/1.1" 200 334
0:0:0:0:0:0:0:1 - - [20/Sep/2019:14:48:46 +0545] "GET /favicon.ico HTTP/1.1" 404 1085
0:0:0:0:0:0:0:1 - - [20/Sep/2019:14:48:51 +0545] "GET /Application3/First?login_name=admin&login_password=admin HTTP/1.1" 200 334
127.0.0.1 - - [20/Sep/2019:14:52:55 +0545] "GET / HTTP/1.1" 404 1074
0:0:0:0:0:0:0:1 - - [20/Sep/2019:14:52:55 +0545] "GET /Application3/ HTTP/1.1" 200 334
0:0:0:0:0:0:0:1 - - [20/Sep/2019:14:53:01 +0545] "GET /Application3/First?login_name=admin&login_password=admin HTTP/1.1" 200 109
0:0:0:0:0:0:0:1 - - [20/Sep/2019:14:53:48 +0545] "GET /Application3/index.jsp HTTP/1.1" 200 334
0:0:0:0:0:0:0:1 - - [20/Sep/2019:14:53:55 +0545] "GET /Application3/First?login_name=suraj&login_password=admin HTTP/1.1" 200 334
0:0:0:0:0:0:0:1 - - [20/Sep/2019:14:54:05 +0545] "GET /Application3/First?login_name=raj&login_password=admin HTTP/1.1" 200 105
0:0:0:0:0:0:0:1 - - [20/Sep/2019:14:57:09 +0545] "GET /Application3/ HTTP/1.1" 200 334
0:0:0:0:0:0:0:1 - - [20/Sep/2019:14:57:15 +0545] "GET /Application3/First?login_name=admin&login_password=admin HTTP/1.1" 200 109
0:0:0:0:0:0:0:1 - - [20/Sep/2019:14:57:22 +0545] "GET /Application3/index.jsp HTTP/1.1" 200 334
127.0.0.1 - - [20/Sep/2019:15:33:48 +0545] "GET / HTTP/1.1" 404 1074
0:0:0:0:0:0:0:1 - - [20/Sep/2019:15:33:49 +0545] "GET /Application3/ HTTP/1.1" 200 334
0:0:0:0:0:0:0:1 - - [20/Sep/2019:15:33:55 +0545] "GET /Application3/First?login_name=admin&login_password=admin HTTP/1.1" 200 142
0:0:0:0:0:0:0:1 - - [20/Sep/2019:15:34:04 +0545] "GET /Application3/form.jsp HTTP/1.1" 200 353
0:0:0:0:0:0:0:1 - - [20/Sep/2019:15:34:34 +0545] "GET /Application3/saveUser?txt_fn=mina+karki&txt_ln=karki&txt_lp=karki HTTP/1.1" 405 1116
127.0.0.1 - - [20/Sep/2019:15:36:03 +0545] "GET / HTTP/1.1" 404 1074
0:0:0:0:0:0:0:1 - - [20/Sep/2019:15:36:03 +0545] "GET /Application3/ HTTP/1.1" 200 334
0:0:0:0:0:0:0:1 - - [20/Sep/2019:15:36:09 +0545] "GET /Application3/First?login_name=admin&login_password=admin HTTP/1.1" 200 142
0:0:0:0:0:0:0:1 - - [20/Sep/2019:15:36:11 +0545] "GET /Application3/form.jsp HTTP/1.1" 200 353
0:0:0:0:0:0:0:1 - - [20/Sep/2019:15:36:19 +0545] "GET /Application3/saveUser?txt_fn=laxman&txt_ln=karki&txt_lp=karki HTTP/1.1" 405 1116
127.0.0.1 - - [20/Sep/2019:15:37:25 +0545] "GET / HTTP/1.1" 404 1074
0:0:0:0:0:0:0:1 - - [20/Sep/2019:15:37:27 +0545] "GET /Application3/ HTTP/1.1" 200 334
0:0:0:0:0:0:0:1 - - [20/Sep/2019:15:37:27 +0545] "GET /favicon.ico HTTP/1.1" 404 1085
0:0:0:0:0:0:0:1 - - [20/Sep/2019:15:37:34 +0545] "GET /Application3/First?login_name=admin&login_password=admin HTTP/1.1" 200 142
0:0:0:0:0:0:0:1 - - [20/Sep/2019:15:37:36 +0545] "GET /Application3/form.jsp HTTP/1.1" 404 1099
127.0.0.1 - - [20/Sep/2019:15:57:09 +0545] "GET / HTTP/1.1" 404 1074
0:0:0:0:0:0:0:1 - - [20/Sep/2019:15:57:10 +0545] "GET /Application3/saveuser.jsp HTTP/1.1" 200 365
0:0:0:0:0:0:0:1 - - [20/Sep/2019:15:57:10 +0545] "GET /favicon.ico HTTP/1.1" 404 1085
0:0:0:0:0:0:0:1 - - [20/Sep/2019:15:57:20 +0545] "GET /Application3/save?txt_ln=karki&txt_ln=karki&txt_lp=karki HTTP/1.1" 200 23
127.0.0.1 - - [20/Sep/2019:16:00:08 +0545] "GET / HTTP/1.1" 404 1074
0:0:0:0:0:0:0:1 - - [20/Sep/2019:16:00:09 +0545] "GET /Application3/index.jsp HTTP/1.1" 200 370
0:0:0:0:0:0:0:1 - - [20/Sep/2019:16:00:12 +0545] "GET /Application3/saveuser.jsp HTTP/1.1" 200 365
0:0:0:0:0:0:0:1 - - [20/Sep/2019:16:00:23 +0545] "GET /Application3/save?txt_ln=laxman&txt_ln=karki&txt_lp=karki HTTP/1.1" 200 29
127.0.0.1 - - [20/Sep/2019:16:03:19 +0545] "GET / HTTP/1.1" 404 1074
0:0:0:0:0:0:0:1 - - [20/Sep/2019:16:03:19 +0545] "GET /Application3/index.jsp HTTP/1.1" 200 370
0:0:0:0:0:0:0:1 - - [20/Sep/2019:16:03:23 +0545] "GET /Application3/saveuser.jsp HTTP/1.1" 200 365
0:0:0:0:0:0:0:1 - - [20/Sep/2019:16:03:30 +0545] "GET /Application3/save?txt_ln=karki&txt_ln=laxman&txt_lp=karki HTTP/1.1" 200 29
127.0.0.1 - - [20/Sep/2019:16:04:52 +0545] "GET / HTTP/1.1" 404 1074
0:0:0:0:0:0:0:1 - - [20/Sep/2019:16:04:53 +0545] "GET /Application3/index.jsp HTTP/1.1" 200 370
0:0:0:0:0:0:0:1 - - [20/Sep/2019:16:04:54 +0545] "GET /Application3/saveuser.jsp HTTP/1.1" 200 365
0:0:0:0:0:0:0:1 - - [20/Sep/2019:16:05:01 +0545] "GET /Application3/save?txt_ln=karki&txt_ln=laxman&txt_lp=karki HTTP/1.1" 200 29
0:0:0:0:0:0:0:1 - - [20/Sep/2019:16:05:21 +0545] "GET /Application3/ HTTP/1.1" 200 370
0:0:0:0:0:0:0:1 - - [20/Sep/2019:16:05:23 +0545] "GET /Application3/saveuser.jsp HTTP/1.1" 200 365
0:0:0:0:0:0:0:1 - - [20/Sep/2019:16:05:30 +0545] "GET /Application3/save?txt_ln=karki&txt_ln=laxman&txt_lp=karki HTTP/1.1" 200 29
127.0.0.1 - - [20/Sep/2019:16:06:02 +0545] "GET / HTTP/1.1" 404 1074
0:0:0:0:0:0:0:1 - - [20/Sep/2019:16:06:03 +0545] "GET /Application3/ HTTP/1.1" 200 370
0:0:0:0:0:0:0:1 - - [20/Sep/2019:16:06:05 +0545] "GET /Application3/saveuser.jsp HTTP/1.1" 200 365
0:0:0:0:0:0:0:1 - - [20/Sep/2019:16:06:11 +0545] "GET /Application3/save?txt_ln=karki&txt_ln=laxman&txt_lp=karki HTTP/1.1" 200 41
0:0:0:0:0:0:0:1 - - [20/Sep/2019:16:07:55 +0545] "GET /LoginUsers/SaveUser.jsp HTTP/1.1" 200 369
0:0:0:0:0:0:0:1 - - [20/Sep/2019:16:08:15 +0545] "GET /LoginUsers/SaveUser?txt_fn=santa&txt_ln=xora&txt_lp=xorii HTTP/1.1" 200 8
127.0.0.1 - - [20/Sep/2019:16:11:32 +0545] "GET / HTTP/1.1" 404 1074
0:0:0:0:0:0:0:1 - - [20/Sep/2019:16:11:33 +0545] "GET /Application3/ HTTP/1.1" 200 370
0:0:0:0:0:0:0:1 - - [20/Sep/2019:16:11:36 +0545] "GET /Application3/saveuser.jsp HTTP/1.1" 200 365
0:0:0:0:0:0:0:1 - - [20/Sep/2019:16:11:53 +0545] "GET /Application3/save?txt_fn=laxman&txt_ln=beta&txt_lp=beta HTTP/1.1" 200 -
127.0.0.1 - - [20/Sep/2019:16:14:52 +0545] "GET / HTTP/1.1" 404 1074
0:0:0:0:0:0:0:1 - - [20/Sep/2019:16:14:52 +0545] "GET /Application3/ HTTP/1.1" 200 370
0:0:0:0:0:0:0:1 - - [20/Sep/2019:16:14:55 +0545] "GET /Application3/saveuser.jsp HTTP/1.1" 200 365
0:0:0:0:0:0:0:1 - - [20/Sep/2019:16:15:15 +0545] "GET /Application3/save?txt_fn=suraj&txt_ln=babu&txt_lp=babu HTTP/1.1" 200 33
0:0:0:0:0:0:0:1 - - [20/Sep/2019:16:15:19 +0545] "GET /Application3/saveuser.jsp HTTP/1.1" 200 365
0:0:0:0:0:0:0:1 - - [20/Sep/2019:16:16:57 +0545] "GET /Application3/saveuser.jsp HTTP/1.1" 200 402
0:0:0:0:0:0:0:1 - - [20/Sep/2019:16:17:00 +0545] "GET /Application3/index.jsp HTTP/1.1" 200 370
0:0:0:0:0:0:0:1 - - [20/Sep/2019:16:17:09 +0545] "GET /Application3/First?login_name=babu&login_password=babu HTTP/1.1" 200 106
0:0:0:0:0:0:0:1 - - [20/Sep/2019:16:17:15 +0545] "GET /Application3/index.jsp HTTP/1.1" 200 370
0:0:0:0:0:0:0:1 - - [20/Sep/2019:16:18:04 +0545] "GET /Application3/index.jsp HTTP/1.1" 200 370
0:0:0:0:0:0:0:1 - - [20/Sep/2019:16:18:05 +0545] "GET /Application3/saveuser.jsp HTTP/1.1" 200 402
0:0:0:0:0:0:0:1 - - [20/Sep/2019:16:18:11 +0545] "GET /Application3/index.jsp HTTP/1.1" 200 370
0:0:0:0:0:0:0:1 - - [20/Sep/2019:16:18:13 +0545] "GET /Application3/saveuser.jsp HTTP/1.1" 200 402
0:0:0:0:0:0:0:1 - - [20/Sep/2019:16:18:16 +0545] "GET /Application3/index.jsp HTTP/1.1" 200 370
127.0.0.1 - - [20/Sep/2019:17:50:49 +0545] "GET / HTTP/1.1" 404 1074
0:0:0:0:0:0:0:1 - - [20/Sep/2019:17:50:53 +0545] "GET /Application4/ HTTP/1.1" 200 344
0:0:0:0:0:0:0:1 - - [20/Sep/2019:17:50:53 +0545] "GET /favicon.ico HTTP/1.1" 404 1085
0:0:0:0:0:0:0:1 - - [20/Sep/2019:17:51:10 +0545] "GET /Application4/web1?login_name=admin&login_password=admin HTTP/1.1" 200 14
127.0.0.1 - - [20/Sep/2019:17:56:55 +0545] "GET / HTTP/1.1" 404 1074
0:0:0:0:0:0:0:1 - - [20/Sep/2019:17:56:59 +0545] "GET /Application4/savedata.jsp HTTP/1.1" 200 361
0:0:0:0:0:0:0:1 - - [20/Sep/2019:17:56:59 +0545] "GET /favicon.ico HTTP/1.1" 404 1085
0:0:0:0:0:0:0:1 - - [20/Sep/2019:17:57:05 +0545] "GET /Application4/index.jsp HTTP/1.1" 200 344
127.0.0.1 - - [20/Sep/2019:18:10:40 +0545] "GET / HTTP/1.1" 404 1074
0:0:0:0:0:0:0:1 - - [20/Sep/2019:18:10:42 +0545] "GET /Application4/ HTTP/1.1" 200 344
0:0:0:0:0:0:0:1 - - [20/Sep/2019:18:10:42 +0545] "GET /favicon.ico HTTP/1.1" 404 1085
0:0:0:0:0:0:0:1 - - [20/Sep/2019:18:10:49 +0545] "GET /Application4/web1?login_name=admin&login_password=admin HTTP/1.1" 200 73
0:0:0:0:0:0:0:1 - - [20/Sep/2019:18:10:53 +0545] "GET /Application4/index.jsp HTTP/1.1" 200 344
0:0:0:0:0:0:0:1 - - [20/Sep/2019:18:10:58 +0545] "GET /Application4/web1?login_name=admin&login_password=admin HTTP/1.1" 200 73
0:0:0:0:0:0:0:1 - - [20/Sep/2019:18:11:01 +0545] "GET /Application4/savedata.jsp HTTP/1.1" 200 361
0:0:0:0:0:0:0:1 - - [20/Sep/2019:18:11:41 +0545] "GET /Application4/index.jsp HTTP/1.1" 200 344
0:0:0:0:0:0:0:1 - - [20/Sep/2019:18:14:27 +0545] "GET /Application4/web1?login_name=admin&login_password=admin HTTP/1.1" 200 73
0:0:0:0:0:0:0:1 - - [20/Sep/2019:18:14:29 +0545] "GET /Application4/index.jsp HTTP/1.1" 200 344
0:0:0:0:0:0:0:1 - - [20/Sep/2019:18:14:34 +0545] "GET /Application4/web1?login_name=suraj&login_password=das HTTP/1.1" 200 344
0:0:0:0:0:0:0:1 - - [20/Sep/2019:18:16:37 +0545] "GET /Application4/ HTTP/1.1" 200 384
0:0:0:0:0:0:0:1 - - [20/Sep/2019:18:16:40 +0545] "GET /Application4/savedata.jsp HTTP/1.1" 200 361
0:0:0:0:0:0:0:1 - - [20/Sep/2019:18:22:49 +0545] "GET /Application3/ HTTP/1.1" 200 370
0:0:0:0:0:0:0:1 - - [20/Sep/2019:18:22:51 +0545] "GET /Application3/saveuser.jsp HTTP/1.1" 200 402
0:0:0:0:0:0:0:1 - - [20/Sep/2019:18:23:18 +0545] "GET /Application3/save?txt_fn=manisha+bhattrai&txt_ln=manisha%40man&txt_lp=man123%40 HTTP/1.1" 200 33
127.0.0.1 - - [20/Sep/2019:18:25:57 +0545] "GET / HTTP/1.1" 404 1074
0:0:0:0:0:0:0:1 - - [20/Sep/2019:18:25:58 +0545] "GET /Application4/ HTTP/1.1" 200 384
0:0:0:0:0:0:0:1 - - [20/Sep/2019:18:26:07 +0545] "GET /Application4/web1?login_name=admin&login_password=admin HTTP/1.1" 200 73
0:0:0:0:0:0:0:1 - - [20/Sep/2019:18:26:10 +0545] "GET /Application4/savedata.jsp HTTP/1.1" 200 357
0:0:0:0:0:0:0:1 - - [20/Sep/2019:18:26:50 +0545] "GET /Application4/index.jsp HTTP/1.1" 200 384
0:0:0:0:0:0:0:1 - - [20/Sep/2019:18:27:02 +0545] "GET /Application4/web1?login_name=&login_password= HTTP/1.1" 200 63
0:0:0:0:0:0:0:1 - - [20/Sep/2019:18:27:30 +0545] "GET /Application4/index.jsp HTTP/1.1" 200 384
0:0:0:0:0:0:0:1 - - [20/Sep/2019:18:27:38 +0545] "GET /Application4/savedata.jsp HTTP/1.1" 200 357
0:0:0:0:0:0:0:1 - - [20/Sep/2019:18:29:26 +0545] "GET /Application4/ HTTP/1.1" 200 384
0:0:0:0:0:0:0:1 - - [20/Sep/2019:18:29:26 +0545] "GET /favicon.ico HTTP/1.1" 404 1085
0:0:0:0:0:0:0:1 - - [20/Sep/2019:18:29:35 +0545] "GET /Application4/web1?login_name=raj&login_password=admin HTTP/1.1" 200 71
0:0:0:0:0:0:0:1 - - [20/Sep/2019:18:29:38 +0545] "GET /Application4/index.jsp HTTP/1.1" 200 384
0:0:0:0:0:0:0:1 - - [20/Sep/2019:18:29:46 +0545] "GET /Application4/web1?login_name=raj&login_password=admin HTTP/1.1" 200 71
0:0:0:0:0:0:0:1 - - [20/Sep/2019:18:29:47 +0545] "GET /Application4/savedata.jsp HTTP/1.1" 200 375
0:0:0:0:0:0:0:1 - - [20/Sep/2019:18:30:14 +0545] "GET /Application4/save?txt_fn=harish&txt_ln=harish%40132&txt_lp=pass%40134harish HTTP/1.1" 200 -
